"HITId","HITTypeId","Title","Description","Keywords","Reward","CreationTime","MaxAssignments","RequesterAnnotation","AssignmentDurationInSeconds","AutoApprovalDelayInSeconds","Expiration","NumberOfSimilarHITs","LifetimeInSeconds","AssignmentId","WorkerId","AssignmentStatus","AcceptTime","SubmitTime","AutoApprovalTime","ApprovalTime","RejectionTime","RequesterFeedback","WorkTimeInSeconds","LifetimeApprovalRate","Last30DaysApprovalRate","Last7DaysApprovalRate","Input.Instructions","Input.Examples","Input.ConflictType","Input.Role","Answer.Comment","Answer.ConflictDescription","Answer.ContinuedFriendshipDuration","Answer.Emotion","Answer.FamilialRelationship","Answer.FriendshipType","Answer.Issues","Answer.PreviousFriendshipDuration","Answer.SameSex","Answer.Satisfaction","Answer.SchoolRelationship","Answer.Severity","Answer.Sex","Answer.TimeLapsed","Answer.WorkRelationship","Approve","Reject"
"2TEA6X3YOCCFDEOLAFGTNNIISZJQPZ","2PB9NZW6HEZ61G36MPK8B9GUMO8OY9","Write About a Disagreement","Describe a conflict, argument or disagreement you have had with someone else","conflict disagreement argument story creative writing description write text input opinion survey describe discussion","$0.15","Sat Sep 24 17:34:50 GMT 2011","50","","3600","86400","Mon Sep 26 17:34:50 GMT 2011","0","","24QT3DHJHP4BQFJWUGZRXX9YAAHV2I","A3F5EUPG9SS2KA","Approved","Mon Sep 26 00:01:32 GMT 2011","Mon Sep 26 00:05:27 GMT 2011","Mon Sep 26 17:05:27 PDT 2011","Sun Sep 25 17:12:46 PDT 2011","","","235","100% (1/1)","100% (1/1)","0% (0/0)","Please describe a situation in which you were in a conflict with another person. This conflct could be a verbal or physical disagreement or it could be a situation in which you were uncomfortable.","You disagreed with a coworker over a policy at work.<br/>You caught someone lying to you.<br/>Someone broke a promise to you.<br/>Someone asked you a favor you didn't want to do.<br/>Someone teased you or made a joke that hurt your feelings.<br/>You got stuck working with someone you didn't like.<br/>You wanted to use a resource  (for example, a tennis court), but someone was already using it.","General","General","","I took in two cats at work that were too sick to keep. My boss told me that I wasnt allowed to decide how sick they were, and that I should have charged a euth fee. Well, which is it?","Month","Moderately","None","Acquaintance","Prevention|","Year","Yes","CompletelyDissatisfied","None","","Female","Week","Supervisor"
"2TEA6X3YOCCFDEOLAFGTNNIISZJQPZ","2PB9NZW6HEZ61G36MPK8B9GUMO8OY9","Write About a Disagreement","Describe a conflict, argument or disagreement you have had with someone else","conflict disagreement argument story creative writing description write text input opinion survey describe discussion","$0.15","Sat Sep 24 17:34:50 GMT 2011","50","","3600","86400","Mon Sep 26 17:34:50 GMT 2011","0","","2LFFSVGULF39IUVMDYSFX3NZUCE9NU","A2AVFNOKFHQ2ME","Approved","Sun Sep 25 06:33:14 GMT 2011","Sun Sep 25 06:35:47 GMT 2011","Mon Sep 26 06:35:47 GMT 2011","2011/09/25 16:36:29 +0000","","","153","100% (5/5)","100% (5/5)","0% (0/0)","Please describe a situation in which you were in a conflict with another person. This conflct could be a verbal or physical disagreement or it could be a situation in which you were uncomfortable.","You disagreed with a coworker over a policy at work.<br/>You caught someone lying to you.<br/>Someone broke a promise to you.<br/>Someone asked you a favor you didn't want to do.<br/>Someone teased you or made a joke that hurt your feelings.<br/>You got stuck working with someone you didn't like.<br/>You wanted to use a resource  (for example, a tennis court), but someone was already using it.","General","General","","A friend of mine was having problems with a guy she was dating.  She wanted me to contact him and talk to him.  I didn't even know the guy and from what I saw and heard, he was kind of a scum bucket.  I didn't want to talk to the person also because it felt like this was all high school stuff.  It got resolved by me refusing to do it. She got a bit upset and wound up finding someone else to do it.","Long","Little","None","CloseFriend","AskFavor|RefuseFavor|Friendship|","Long","Yes","CompletelySatisfied","Classmate","Minor","Female","Long",""
"2TEA6X3YOCCFDEOLAFGTNNIISZJQPZ","2PB9NZW6HEZ61G36MPK8B9GUMO8OY9","Write About a Disagreement","Describe a conflict, argument or disagreement you have had with someone else","conflict disagreement argument story creative writing description write text input opinion survey describe discussion","$0.15","Sat Sep 24 17:34:50 GMT 2011","50","","3600","86400","Mon Sep 26 17:34:50 GMT 2011","0","","2W6GOOGQSCM6VC9IIW9UZU01VJAFF8","A3QDLKQAD3DMF","Approved","Sun Sep 25 15:12:05 GMT 2011","Sun Sep 25 15:13:42 GMT 2011","Mon Sep 26 15:13:42 GMT 2011","2011/09/25 16:36:29 +0000","","","97","100% (107/107)","100% (107/107)","0% (0/0)","Please describe a situation in which you were in a conflict with another person. This conflct could be a verbal or physical disagreement or it could be a situation in which you were uncomfortable.","You disagreed with a coworker over a policy at work.<br/>You caught someone lying to you.<br/>Someone broke a promise to you.<br/>Someone asked you a favor you didn't want to do.<br/>Someone teased you or made a joke that hurt your feelings.<br/>You got stuck working with someone you didn't like.<br/>You wanted to use a resource  (for example, a tennis court), but someone was already using it.","General","General","","I told my parents I was going to rent a studio until I decided where i wanted to move to.  They got mad and said I was wasting my money.  But I said it's my life and I don't want to live home anymore.","Month","Moderately","None","Friend","Other|moving","","No","SlightlyDissatisfied","None","Substantial","Male","Week",""
"2SVDP8PJWKUDQAW21LH3EZ0B1VVI7G","2PB9NZW6HEZ61G36MPK8B9GUMO8OY9","Write About a Disagreement","Describe a conflict, argument or disagreement you have had with someone else","conflict disagreement argument story creative writing description write text input opinion survey describe discussion","$0.15","Sat Sep 24 17:34:49 GMT 2011","50","","3600","86400","Mon Sep 26 17:34:49 GMT 2011","0","","2M70CP5KXPTI0KHDOYVPR7NZDZUZYD","A3QDLKQAD3DMF","Approved","Sun Sep 25 15:06:04 GMT 2011","Sun Sep 25 15:08:02 GMT 2011","Mon Sep 26 08:08:02 PDT 2011","Sun Sep 25 09:36:28 PDT 2011","","","118","100% (107/107)","100% (107/107)","0% (0/0)","Please describe a situation in which you were in a conflict with another person. This conflct could be a verbal or physical disagreement or it could be a situation in which you were uncomfortable.","You disagreed with a coworker over a policy at work.<br/>You caught someone lying to you.<br/>Someone broke a promise to you.<br/>Someone asked you a favor you didn't want to do.<br/>Someone teased you or made a joke that hurt your feelings.<br/>You got stuck working with someone you didn't like.<br/>You wanted to use a resource  (for example, a tennis court), but someone was already using it.","General","General","","My girlfriend went behind my back and took a job far away.  she never told me so I wasn't prepared for the fact that we have to break up.  I'm not quitting my job and leaving my family and friends.","Week","Extremely","None","RomanticallyInvolved","Romantic|","Long","No","CompletelyDissatisfied","None","Catastrophic","Male","Week",""
"2SVDP8PJWKUDQAW21LH3EZ0B1VVI7G","2PB9NZW6HEZ61G36MPK8B9GUMO8OY9","Write About a Disagreement","Describe a conflict, argument or disagreement you have had with someone else","conflict disagreement argument story creative writing description write text input opinion survey describe discussion","$0.15","Sat Sep 24 17:34:49 GMT 2011","50","","3600","86400","Mon Sep 26 17:34:49 GMT 2011","0","","2NGBDDP8PJWK7FCON423V390749G52","A2AVFNOKFHQ2ME","Approved","Sun Sep 25 06:45:24 GMT 2011","Sun Sep 25 06:55:11 GMT 2011","Mon Sep 26 06:55:11 GMT 2011","Sun Sep 25 09:36:28 PDT 2011","","","587","100% (5/5)","100% (5/5)","0% (0/0)","Please describe a situation in which you were in a conflict with another person. This conflct could be a verbal or physical disagreement or it could be a situation in which you were uncomfortable.","You disagreed with a coworker over a policy at work.<br/>You caught someone lying to you.<br/>Someone broke a promise to you.<br/>Someone asked you a favor you didn't want to do.<br/>Someone teased you or made a joke that hurt your feelings.<br/>You got stuck working with someone you didn't like.<br/>You wanted to use a resource  (for example, a tennis court), but someone was already using it.","General","General","","A friend was wanting me to lie to her boyfriend about how many guys she had been with.  She's been with over 40 guys in less 7 years but she tells guys she dates that she's only been with a few and says it's none of their business how many exactly.  I didn't want to do it because in my opinion, they do have a right to know.  I told her I wouldn't volunteer the info but I wasn't going to flat out lie.  This got her a bit upset and so I just did what I could to avoid telling them and would change the subject if it looked like it was going to come up.","Long","Little","None","CloseFriend","Fairness|AskFavor|RefuseFavor|Deceived|Social|Friendship|Trust|","Long","Yes","Slightly satisfied","Classmate","Minor","Female","Long",""
"2NFBAT2D5NQY07EJGIAGATYMIDY735","2PB9NZW6HEZ61G36MPK8B9GUMO8OY9","Write About a Disagreement","Describe a conflict, argument or disagreement you have had with someone else","conflict disagreement argument story creative writing description write text input opinion survey describe discussion","$0.15","Sat Sep 24 17:34:50 GMT 2011","50","","3600","86400","Mon Sep 26 17:34:50 GMT 2011","0","","25B8EBDPGFL68EOCPRINIWIP2UW2HN","A2AVFNOKFHQ2ME","Approved","Sun Sep 25 06:56:19 GMT 2011","Sun Sep 25 07:06:43 GMT 2011","Mon Sep 26 07:06:43 GMT 2011","Sun Sep 25 09:36:29 PDT 2011","","","624","100% (5/5)","100% (5/5)","0% (0/0)","Please describe a situation in which you were in a conflict with another person. This conflct could be a verbal or physical disagreement or it could be a situation in which you were uncomfortable.","You disagreed with a coworker over a policy at work.<br/>You caught someone lying to you.<br/>Someone broke a promise to you.<br/>Someone asked you a favor you didn't want to do.<br/>Someone teased you or made a joke that hurt your feelings.<br/>You got stuck working with someone you didn't like.<br/>You wanted to use a resource  (for example, a tennis court), but someone was already using it.","General","General","I clicked on a choice for each option but in the middle, when I made choices, one of the answers I made for the previous question went away.  But I did click on them.  Here is the answer to those questions that took away the answer: 10. Was this person related to you in any of the following ways. None of these Please do not reject this HIT because of that.","My mother-in-law has hated me with a passion since she heard I existed.  She has never said why.  For years, she would go out of her way to treat me badly and complain about everything I did.  My father-in-law really liked me and he thought the only thing I did was marry her baby.  Eventually my husband was told it was me or his family.  Without hesitation, he chose me and we have barely spoken to any of them since.","Never","Extremely","None","Friend","Rumors|Fairness|Prevention|Social|Romantic|Trust|","Long","Yes","Slightly satisfied","None","Substantial","Female","Long",""
"2NFBAT2D5NQY07EJGIAGATYMIDY735","2PB9NZW6HEZ61G36MPK8B9GUMO8OY9","Write About a Disagreement","Describe a conflict, argument or disagreement you have had with someone else","conflict disagreement argument story creative writing description write text input opinion survey describe discussion","$0.15","Sat Sep 24 17:34:50 GMT 2011","50","","3600","86400","Mon Sep 26 17:34:50 GMT 2011","0","","277B0HFL42J1Y04O1PT7R0IHMD7L0F","A3QDLKQAD3DMF","Approved","Sun Sep 25 15:13:50 GMT 2011","Sun Sep 25 15:16:02 GMT 2011","Mon Sep 26 08:16:02 PDT 2011","Sun Sep 25 09:36:29 PDT 2011","","","132","100% (107/107)","100% (107/107)","0% (0/0)","Please describe a situation in which you were in a conflict with another person. This conflct could be a verbal or physical disagreement or it could be a situation in which you were uncomfortable.","You disagreed with a coworker over a policy at work.<br/>You caught someone lying to you.<br/>Someone broke a promise to you.<br/>Someone asked you a favor you didn't want to do.<br/>Someone teased you or made a joke that hurt your feelings.<br/>You got stuck working with someone you didn't like.<br/>You wanted to use a resource  (for example, a tennis court), but someone was already using it.","General","General","","Was told buy a friend he needed $20 to get gas to go to work.  I said fine but you have to pay me back.  And he never did despite me asking numerous times.  which lead to me just giving up and not being his friend anymore.","Never","Extremely","None","CloseFriend","Promise|","Long","Yes","CompletelyDissatisfied","None","Catastrophic","Male","Long",""
